mysql> source z1803493.sql
Reading table information for completion of table and column names
You can turn off this feature to get a quicker startup with -A

use classicmodels;show tables;describe Customers;describe Offices;describe Employees;describe Orders;describe OrderDetails;describe Products;

Database changed
+-------------------------+
| Tables_in_classicmodels |
+-------------------------+
| Customers               |
| Employees               |
| Offices                 |
| OrderDetails            |
| Orders                  |
| Payments                |
| Products                |
+-------------------------+
7 rows in set (0.00 sec)

+------------------------+-------------+------+-----+---------+-------+
| Field                  | Type        | Null | Key | Default | Extra |
+------------------------+-------------+------+-----+---------+-------+
| customerNumber         | int(11)     | NO   | PRI | NULL    |       |
| customerName           | varchar(50) | NO   |     | NULL    |       |
| contactLastName        | varchar(50) | NO   |     | NULL    |       |
| contactFirstName       | varchar(50) | NO   |     | NULL    |       |
| phone                  | varchar(50) | NO   |     | NULL    |       |
| addressLine1           | varchar(50) | NO   |     | NULL    |       |
| addressLine2           | varchar(50) | YES  |     | NULL    |       |
| city                   | varchar(50) | NO   |     | NULL    |       |
| state                  | varchar(50) | YES  |     | NULL    |       |
| postalCode             | varchar(15) | YES  |     | NULL    |       |
| country                | varchar(50) | NO   |     | NULL    |       |
| salesRepEmployeeNumber | int(11)     | YES  |     | NULL    |       |
| creditLimit            | double      | YES  |     | NULL    |       |
+------------------------+-------------+------+-----+---------+-------+
13 rows in set (0.03 sec)

+--------------+-------------+------+-----+---------+-------+
| Field        | Type        | Null | Key | Default | Extra |
+--------------+-------------+------+-----+---------+-------+
| officeCode   | varchar(50) | NO   | PRI | NULL    |       |
| city         | varchar(50) | NO   |     | NULL    |       |
| phone        | varchar(50) | NO   |     | NULL    |       |
| addressLine1 | varchar(50) | NO   |     | NULL    |       |
| addressLine2 | varchar(50) | YES  |     | NULL    |       |
| state        | varchar(50) | YES  |     | NULL    |       |
| country      | varchar(50) | NO   |     | NULL    |       |
| postalCode   | varchar(10) | NO   |     | NULL    |       |
| territory    | varchar(10) | NO   |     | NULL    |       |
+--------------+-------------+------+-----+---------+-------+
9 rows in set (0.00 sec)

+----------------+--------------+------+-----+---------+-------+
| Field          | Type         | Null | Key | Default | Extra |
+----------------+--------------+------+-----+---------+-------+
| employeeNumber | int(11)      | NO   | PRI | NULL    |       |
| lastName       | varchar(50)  | NO   |     | NULL    |       |
| firstName      | varchar(50)  | NO   |     | NULL    |       |
| extension      | varchar(10)  | NO   |     | NULL    |       |
| email          | varchar(100) | NO   |     | NULL    |       |
| officeCode     | varchar(20)  | NO   |     | NULL    |       |
| reportsTo      | int(11)      | YES  |     | NULL    |       |
| jobTitle       | varchar(50)  | NO   |     | NULL    |       |
+----------------+--------------+------+-----+---------+-------+
8 rows in set (0.00 sec)

+----------------+-------------+------+-----+---------+-------+
| Field          | Type        | Null | Key | Default | Extra |
+----------------+-------------+------+-----+---------+-------+
| orderNumber    | int(11)     | NO   | PRI | NULL    |       |
| orderDate      | datetime    | NO   |     | NULL    |       |
| requiredDate   | datetime    | NO   |     | NULL    |       |
| shippedDate    | datetime    | YES  |     | NULL    |       |
| status         | varchar(15) | NO   |     | NULL    |       |
| comments       | text        | YES  |     | NULL    |       |
| customerNumber | int(11)     | NO   |     | NULL    |       |
+----------------+-------------+------+-----+---------+-------+
7 rows in set (0.00 sec)

+-----------------+-------------+------+-----+---------+-------+
| Field           | Type        | Null | Key | Default | Extra |
+-----------------+-------------+------+-----+---------+-------+
| orderNumber     | int(11)     | NO   | PRI | NULL    |       |
| productCode     | varchar(50) | NO   | PRI | NULL    |       |
| quantityOrdered | int(11)     | NO   |     | NULL    |       |
| priceEach       | double      | NO   |     | NULL    |       |
| orderLineNumber | smallint(6) | NO   |     | NULL    |       |
+-----------------+-------------+------+-----+---------+-------+
5 rows in set (0.00 sec)

+--------------------+-------------+------+-----+---------+-------+
| Field              | Type        | Null | Key | Default | Extra |
+--------------------+-------------+------+-----+---------+-------+
| productCode        | varchar(50) | NO   | PRI | NULL    |       |
| productName        | varchar(70) | NO   |     | NULL    |       |
| productLine        | varchar(50) | NO   |     | NULL    |       |
| productScale       | varchar(10) | NO   |     | NULL    |       |
| productVendor      | varchar(50) | NO   |     | NULL    |       |
| productDescription | text        | NO   |     | NULL    |       |
| quantityInStock    | smallint(6) | NO   |     | NULL    |       |
| buyPrice           | double      | NO   |     | NULL    |       |
| MSRP               | double      | NO   |     | NULL    |       |
+--------------------+-------------+------+-----+---------+-------+
9 rows in set (0.01 sec)



/*1*/
select count(customerNumber) , city from Customers group by country;

+-----------------------+-------------------+
| count(customerNumber) | city              |
+-----------------------+-------------------+
|                     5 | Melbourne         |
|                     2 | Salzburg          |
|                     2 | Bruxelles         |
|                     3 | Vancouver         |
|                     2 | Kobenhavn         |
|                     3 | Helsinki          |
|                    12 | Nantes            |
|                    13 | Frankfurt         |
|                     1 | Central Hong Kong |
|                     2 | Dublin            |
|                     1 | Herzlia           |
|                     4 | Torino            |
|                     2 | Osaka             |
|                     1 | Amsterdam         |
|                     4 | Auckland          |
|                     3 | Stavern           |
|                     1 | Makati City       |
|                     1 | Warszawa          |
|                     2 | Lisboa            |
|                     1 | Saint Petersburg  |
|                     3 | Singapore         |
|                     1 | Chempet           |
|                     7 | Madrid            |
|                     2 | Luleå             |
|                     3 | Fribourg          |
|                     5 | Manchester        |
|                    36 | Las Vegas         |
+-----------------------+-------------------+
27 rows in set (0.00 sec)



/*2*/
select count(customerNumber) , city from Customers group by city;

+-----------------------+-------------------+
| count(customerNumber) | city              |
+-----------------------+-------------------+
|                     1 | Aachen            |
|                     1 | Allentown         |
|                     1 | Amsterdam         |
|                     3 | Auckland          |
|                     1 | Barcelona         |
|                     1 | Bergamo           |
|                     1 | Bergen            |
|                     1 | Berlin            |
|                     1 | Bern              |
|                     2 | Boston            |
|                     1 | Brandenburg       |
|                     3 | Brickhaven        |
|                     1 | Bridgewater       |
|                     1 | Brisbane          |
|                     1 | Bruxelles         |
|                     1 | Bräcke            |
|                     1 | Burbank           |
|                     1 | Burlingame        |
|                     2 | Cambridge         |
|                     1 | Central Hong Kong |
|                     1 | Charleroi         |
|                     1 | Chatswood         |
|                     1 | Chempet           |
|                     1 | Cork              |
|                     1 | Cowes             |
|                     1 | Cunewalde         |
|                     1 | Dublin            |
|                     1 | Espoo             |
|                     2 | Frankfurt         |
|                     1 | Fribourg          |
|                     1 | Genève            |
|                     1 | Glen Waverly      |
|                     2 | Glendale          |
|                     1 | Graz              |
|                     1 | Helsinki          |
|                     1 | Herzlia           |
|                     1 | Kobenhavn         |
|                     1 | Köln              |
|                     1 | Las Vegas         |
|                     1 | Leipzig           |
|                     1 | Lille             |
|                     2 | Lisboa            |
|                     1 | Liverpool         |
|                     2 | London            |
|                     1 | Los Angeles       |
|                     1 | Luleå             |
|                     1 | Lyon              |
|                     5 | Madrid            |
|                     1 | Makati City       |
|                     1 | Manchester        |
|                     1 | Mannheim          |
|                     1 | Marseille         |
|                     1 | Melbourne         |
|                     1 | Milan             |
|                     1 | Minato-ku         |
|                     1 | Montréal          |
|                     1 | Munich            |
|                     1 | München           |
|                     1 | Münster           |
|                     2 | Nantes            |
|                     1 | Nashua            |
|                     2 | New Bedford       |
|                     2 | New Haven         |
|                     1 | Newark            |
|                     1 | North Sydney      |
|                     5 | NYC               |
|                     1 | Osaka             |
|                     1 | Oslo              |
|                     1 | Oulu              |
|                     3 | Paris             |
|                     1 | Pasadena          |
|                     2 | Philadelphia      |
|                     1 | Reggio Emilia     |
|                     1 | Reims             |
|                     1 | Saint Petersburg  |
|                     1 | Salzburg          |
|                     1 | San Diego         |
|                     2 | San Francisco     |
|                     1 | San Jose          |
|                     1 | San Rafael        |
|                     1 | Sevilla           |
|                     3 | Singapore         |
|                     1 | South Brisbane    |
|                     1 | Stavern           |
|                     1 | Strasbourg        |
|                     1 | Stuttgart         |
|                     1 | Torino            |
|                     1 | Toulouse          |
|                     1 | Tsawassen         |
|                     1 | Vancouver         |
|                     1 | Versailles        |
|                     1 | Warszawa          |
|                     1 | Wellington        |
|                     1 | White Plains      |
|                     1 | Århus             |
+-----------------------+-------------------+
95 rows in set (0.00 sec)



/*3*/
select lastname,firstname, addressLine1, addressLine2, territory, city,state, country, postalCode from Employees inner join Offices on Offices.officeCode=Employees.officeCode ;

+-----------+-----------+--------------------------+--------------+-----------+---------------+------------+-----------+------------+
| lastname  | firstname | addressLine1             | addressLine2 | territory | city          | state      | country   | postalCode |
+-----------+-----------+--------------------------+--------------+-----------+---------------+------------+-----------+------------+
| Murphy    | Diane     | 100 Market Street        | Suite 300    | NA        | San Francisco | CA         | USA       | 94080      |
| Patterson | Mary      | 100 Market Street        | Suite 300    | NA        | San Francisco | CA         | USA       | 94080      |
| Firrelli  | Jeff      | 100 Market Street        | Suite 300    | NA        | San Francisco | CA         | USA       | 94080      |
| Patterson | William   | 5-11 Wentworth Avenue    | Floor #2     | APAC      | Sydney        | NULL       | Australia | NSW 2010   |
| Bondur    | Gerard    | 43 Rue Jouffroy D'abbans | NULL         | EMEA      | Paris         |            | France    | 75017      |
| Bow       | Anthony   | 100 Market Street        | Suite 300    | NA        | San Francisco | CA         | USA       | 94080      |
| Jennings  | Leslie    | 100 Market Street        | Suite 300    | NA        | San Francisco | CA         | USA       | 94080      |
| Thompson  | Leslie    | 100 Market Street        | Suite 300    | NA        | San Francisco | CA         | USA       | 94080      |
| Firrelli  | Julie     | 1550 Court Place         | Suite 102    | NA        | Boston        | MA         | USA       | 02107      |
| Patterson | Steve     | 1550 Court Place         | Suite 102    | NA        | Boston        | MA         | USA       | 02107      |
| Tseng     | Foon Yue  | 523 East 53rd Street     | apt. 5A      | NA        | NYC           | NY         | USA       | 10022      |
| Vanauf    | George    | 523 East 53rd Street     | apt. 5A      | NA        | NYC           | NY         | USA       | 10022      |
| Bondur    | Loui      | 43 Rue Jouffroy D'abbans | NULL         | EMEA      | Paris         |            | France    | 75017      |
| Hernandez | Gerard    | 43 Rue Jouffroy D'abbans | NULL         | EMEA      | Paris         |            | France    | 75017      |
| Castillo  | Pamela    | 43 Rue Jouffroy D'abbans | NULL         | EMEA      | Paris         |            | France    | 75017      |
| Bott      | Larry     | 25 Old Broad Street      | Level 7      | EMEA      | London        | NULL       | UK        | EC2N 1HN   |
| Jones     | Barry     | 25 Old Broad Street      | Level 7      | EMEA      | London        | NULL       | UK        | EC2N 1HN   |
| Fixter    | Andy      | 5-11 Wentworth Avenue    | Floor #2     | APAC      | Sydney        | NULL       | Australia | NSW 2010   |
| Marsh     | Peter     | 5-11 Wentworth Avenue    | Floor #2     | APAC      | Sydney        | NULL       | Australia | NSW 2010   |
| King      | Tom       | 5-11 Wentworth Avenue    | Floor #2     | APAC      | Sydney        | NULL       | Australia | NSW 2010   |
| Nishi     | Mami      | 4-1 Kioicho              | NULL         | Japan     | Tokyo         | Chiyoda-Ku | Japan     | 102-8578   |
| Kato      | Yoshimi   | 4-1 Kioicho              | NULL         | Japan     | Tokyo         | Chiyoda-Ku | Japan     | 102-8578   |
| Gerard    | Martin    | 43 Rue Jouffroy D'abbans | NULL         | EMEA      | Paris         |            | France    | 75017      |
+-----------+-----------+--------------------------+--------------+-----------+---------------+------------+-----------+------------+
23 rows in set (0.00 sec)



/*4*/
select orderNumber, sum(priceEach*quantityOrdered)from OrderDetails group by productCode;

+-------------+--------------------------------+
| orderNumber | sum(priceEach*quantityOrdered) |
+-------------+--------------------------------+
|       10107 |             105279.65999999999 |
|       10103 |                      191072.99 |
|       10107 |                      114419.56 |
|       10107 |             182841.93000000005 |
|       10105 |             120339.81000000001 |
|       10103 |             127548.15999999997 |
|       10108 |             153268.05000000002 |
|       10105 |             179100.00000000006 |
|       10103 |                      136692.72 |
|       10107 |             151168.87999999998 |
|       10104 |             134389.15000000002 |
|       10108 |             103501.56000000003 |
|       10105 |                       152868.8 |
|       10108 |              70177.48999999999 |
|       10104 |             119118.09999999999 |
|       10108 |                      103503.69 |
|       10103 |                      106086.56 |
|       10109 |             129757.49000000003 |
|       10102 |             117023.94999999998 |
|       10102 |              56288.64999999999 |
|       10110 |                      106851.15 |
|       10106 |                      151816.97 |
|       10100 |                      145128.12 |
|       10108 |              79668.56999999999 |
|       10109 |             120538.81999999999 |
|       10104 |                      156020.15 |
|       10100 |             57035.869999999995 |
|       10104 |             122637.62000000001 |
|       10101 |                      122632.58 |
|       10103 |                       65109.15 |
|       10106 |              79081.14999999998 |
|       10107 |              64684.60000000001 |
|       10101 |                      138264.38 |
|       10109 |             110501.80000000002 |
|       10103 |                      105131.41 |
|       10103 |             60568.099999999984 |
|       10106 |              79662.13999999998 |
|       10103 |              92111.49999999999 |
|       10105 |             115644.68999999999 |
|       10104 |              292851.3999999999 |
|       10105 |              95970.51999999999 |
|       10108 |              77885.65000000002 |
|       10103 |                      106728.29 |
|       10108 |                      128657.58 |
|       10109 |                      128318.05 |
|       10108 |                       62923.52 |
|       10106 |             114398.06000000001 |
|       10104 |                      137346.88 |
|       10100 |              82788.70000000001 |
|       10105 |                       85228.78 |
|       10103 |                      127348.88 |
|       10103 |                       76172.76 |
|       10108 |             137115.32000000004 |
|       10110 |                       58232.17 |
|       10110 |                        58977.1 |
|       10104 |                       60731.06 |
|       10107 |             107670.93000000001 |
|       10110 |                       48608.35 |
|       10106 |                       96994.51 |
|       10101 |              50926.53999999999 |
|       10107 |              82775.93000000001 |
|       10105 |             117715.85999999999 |
|       10101 |              49334.83999999999 |
|       10103 |             131108.81999999998 |
|       10108 |                       67953.83 |
|       10110 |              83638.58000000002 |
|       10104 |                       47235.48 |
|       10106 |              66023.59999999999 |
|       10110 |                       92889.52 |
|       10109 |              46515.91999999999 |
|       10105 |              93378.76999999999 |
|       10110 |                       70747.15 |
|       10108 |              59654.92000000001 |
|       10106 |              62235.65999999999 |
|       10110 |              92455.31999999999 |
|       10105 |                        74877.9 |
|       10108 |             140626.91999999998 |
|       10106 |                       75758.11 |
|       10100 |              36376.69999999999 |
|       10104 |             102155.76999999999 |
|       10103 |                      101852.98 |
|       10106 |                       83214.34 |
|       10108 |                       83389.22 |
|       10103 |                       96347.81 |
|       10107 |                      105799.85 |
|       10108 |              44624.22000000001 |
|       10104 |              61979.50000000001 |
|       10104 |                       65834.24 |
|       10103 |              79072.28000000001 |
|       10106 |                       68832.59 |
|       10108 |              94871.98999999999 |
|       10106 |              53264.56999999999 |
|       10104 |             108779.13000000002 |
|       10104 |                       72664.43 |
|       10108 |              89110.28999999996 |
|       10105 |                       67592.25 |
|       10106 |              89568.98000000001 |
|       10105 |                       84190.21 |
|       10106 |              83023.95000000001 |
|       10106 |              98893.76999999999 |
|       10105 |              77872.26000000001 |
|       10103 |                      104279.75 |
|       10106 |             114709.58999999998 |
|       10106 |              87454.29000000001 |
|       10105 |              90867.35999999999 |
|       10105 |                       83693.08 |
|       10106 |                       79335.27 |
|       10106 |              53906.62000000001 |
|       10105 |             64053.740000000005 |
+-------------+--------------------------------+
109 rows in set (0.00 sec)


/*5*/
select customerNumber,sum(priceEach*quantityOrdered)from OrderDetails inner join Orders on OrderDetails.orderNumber = Orders.orderNumber group by productCode limit 5 ;

+----------------+--------------------------------+
| customerNumber | sum(priceEach*quantityOrdered) |
+----------------+--------------------------------+
|            131 |             105279.65999999999 |
|            121 |                      191072.99 |
|            131 |                      114419.56 |
|            131 |             182841.93000000005 |
|            145 |             120339.81000000001 |
+----------------+--------------------------------+
5 rows in set (0.00 sec)



/*6*/
select customerName, count(orderNumber) from Orders inner join Customers on Customers.customerNumber = Orders.customerNumber group by Orders.customerNumber;

+------------------------------------+--------------------+
| customerName                       | count(orderNumber) |
+------------------------------------+--------------------+
| Atelier graphique                  |                  3 |
| Signal Gift Stores                 |                  3 |
| Australian Collectors, Co.         |                  5 |
| La Rochelle Gifts                  |                  4 |
| Baane Mini Imports                 |                  4 |
| Mini Gifts Distributors Ltd.       |                 17 |
| Blauer See Auto, Co.               |                  4 |
| Mini Wheels Co.                    |                  3 |
| Land of Toys Inc.                  |                  4 |
| Euro+ Shopping Channel             |                 26 |
| Volvo Model Replicas, Co           |                  4 |
| Danish Wholesale Imports           |                  5 |
| Saveley & Henriot, Co.             |                  3 |
| Dragon Souveniers, Ltd.            |                  5 |
| Muscle Machine Inc                 |                  4 |
| Diecast Classics Inc.              |                  4 |
| Technics Stores Inc.               |                  4 |
| Handji Gifts& Co                   |                  4 |
| Herkku Gifts                       |                  3 |
| Daedalus Designs Imports           |                  2 |
| La Corne D'abondance, Co.          |                  3 |
| Cambridge Collectables Co.         |                  2 |
| Gift Depot Inc.                    |                  3 |
| Osaka Souveniers Co.               |                  2 |
| Vitachrome Inc.                    |                  3 |
| Toys of Finland, Co.               |                  3 |
| AV Stores, Co.                     |                  3 |
| Clover Collections, Co.            |                  2 |
| Auto-Moto Classics Inc.            |                  3 |
| UK Collectables, Ltd.              |                  3 |
| Canadian Gift Exchange Network     |                  2 |
| Online Mini Collectables           |                  2 |
| Toys4GrownUps.com                  |                  3 |
| Mini Caravy                        |                  3 |
| King Kong Collectables, Co.        |                  2 |
| Enaco Distributors                 |                  3 |
| Boards & Toys Co.                  |                  2 |
| Heintze Collectables               |                  2 |
| Québec Home Shopping Network       |                  3 |
| Collectable Mini Designs Co.       |                  2 |
| giftsbymail.co.uk                  |                  2 |
| Alpha Cognac                       |                  3 |
| Amica Models & Co.                 |                  2 |
| Lyon Souveniers                    |                  3 |
| Auto Associés & Cie.               |                  2 |
| Toms Spezialitäten, Ltd            |                  2 |
| Royal Canadian Collectables, Ltd.  |                  2 |
| Anna's Decorations, Ltd            |                  4 |
| Rovelli Gifts                      |                  3 |
| Souveniers And Things Co.          |                  4 |
| Marta's Replicas Co.               |                  2 |
| Vida Sport, Ltd                    |                  2 |
| Norway Gifts By Mail, Co.          |                  2 |
| Oulu Toy Supplies, Inc.            |                  3 |
| Petit Auto                         |                  3 |
| Mini Classics                      |                  2 |
| Mini Creations Ltd.                |                  3 |
| Corporate Gift Ideas Co.           |                  4 |
| Down Under Souveniers, Inc         |                  5 |
| Stylish Desk Decors, Co.           |                  3 |
| Tekni Collectables Inc.            |                  3 |
| Australian Gift Network, Co        |                  3 |
| Suominen Souveniers                |                  3 |
| Classic Gift Ideas, Inc            |                  2 |
| CAF Imports                        |                  2 |
| Men 'R' US Retailers, Ltd.         |                  2 |
| Marseille Mini Autos               |                  3 |
| Reims Collectables                 |                  5 |
| GiftsForHim.com                    |                  3 |
| Gifts4AllAges.com                  |                  3 |
| Online Diecast Creations Co.       |                  3 |
| Collectables For Less Inc.         |                  3 |
| Royale Belge                       |                  4 |
| Salzburg Collectables              |                  4 |
| Cruz & Sons Co.                    |                  3 |
| L'ordine Souveniers                |                  3 |
| Tokyo Collectables, Ltd            |                  4 |
| Auto Canal+ Petit                  |                  3 |
| Extreme Desk Decorations, Ltd      |                  3 |
| Bavarian Collectables Imports, Co. |                  1 |
| Classic Legends Inc.               |                  3 |
| Gift Ideas Corp.                   |                  3 |
| Scandinavian Gift Ideas            |                  3 |
| The Sharp Gifts Warehouse          |                  4 |
| Mini Auto Werke                    |                  3 |
| Super Scale Inc.                   |                  2 |
| Microscale Inc.                    |                  2 |
| Corrida Auto Replicas, Ltd         |                  3 |
| FunGiftIdeas.com                   |                  3 |
| Australian Collectables, Ltd       |                  3 |
| Frau da Collezione                 |                  2 |
| West Coast Collectables Co.        |                  2 |
| Iberia Gift Imports, Corp.         |                  2 |
| Motor Mint Distributors Inc.       |                  3 |
| Signal Collectibles Ltd.           |                  2 |
| Double Decker Gift Stores, Ltd     |                  2 |
| Diecast Collectables               |                  2 |
| Kelly's Gift Shop                  |                  4 |
+------------------------------------+--------------------+
98 rows in set (0.00 sec)



/*7*/
select concat(e.firstName," ",e.lastName) as Employee_name , concat(em.firstName, " ",em.lastName) as report_name  , e.jobTitle from Employees e left join  Employees em on e.reportsTo=em.employeeNumber;

+-------------------+-------------------+-----------------------------+
| Employee_name     | report_name       | jobTitle                    |
+-------------------+-------------------+-----------------------------+
| Diane Murphy      | NULL              | President                   |
| Mary Patterson    | Diane Murphy      | VP Sales                    |
| Jeff Firrelli     | Diane Murphy      | VP Marketing                |
| William Patterson | Mary Patterson    | Sales Manager (JAPAN, APAC) |
| Gerard Bondur     | Mary Patterson    | Sale Manager (EMEA)         |
| Anthony Bow       | Mary Patterson    | Sales Manager (NA)          |
| Leslie Jennings   | Anthony Bow       | Sales Rep                   |
| Leslie Thompson   | Anthony Bow       | Sales Rep                   |
| Julie Firrelli    | Anthony Bow       | Sales Rep                   |
| Steve Patterson   | Anthony Bow       | Sales Rep                   |
| Foon Yue Tseng    | Anthony Bow       | Sales Rep                   |
| George Vanauf     | Anthony Bow       | Sales Rep                   |
| Loui Bondur       | Gerard Bondur     | Sales Rep                   |
| Gerard Hernandez  | Gerard Bondur     | Sales Rep                   |
| Pamela Castillo   | Gerard Bondur     | Sales Rep                   |
| Larry Bott        | Gerard Bondur     | Sales Rep                   |
| Barry Jones       | Gerard Bondur     | Sales Rep                   |
| Andy Fixter       | William Patterson | Sales Rep                   |
| Peter Marsh       | William Patterson | Sales Rep                   |
| Tom King          | William Patterson | Sales Rep                   |
| Mami Nishi        | William Patterson | Sales Rep                   |
| Yoshimi Kato      | William Patterson | Sales Rep                   |
| Martin Gerard     | Gerard Bondur     | Sales Rep                   |
+-------------------+-------------------+-----------------------------+
23 rows in set (0.00 sec)




/*8*/
select Products.* , count(orderNumber) as no_of_orders, quantityOrdered as total_quantity from Products inner join OrderDetails on OrderDetails.productCode = Products.productCode;

+-------------+--------------------------+--------------+--------------+---------------------------+-----------------------------------------------------------------------------------------------------------------------------------------------------------------------------------------------------------------------------------------------------------------------------------------------------------+-----------------+----------+------+--------------+----------------+
| productCode | productName              | productLine  | productScale | productVendor             | productDescription                                                                                                                                                                                                                                                                                        | quantityInStock | buyPrice | MSRP | no_of_orders | total_quantity |
+-------------+--------------------------+--------------+--------------+---------------------------+-----------------------------------------------------------------------------------------------------------------------------------------------------------------------------------------------------------------------------------------------------------------------------------------------------------+-----------------+----------+------+--------------+----------------+
| S18_1749    | 1917 Grand Touring Sedan | Vintage Cars | 1:18         | Welly Diecast Productions | This 1:18 scale replica of the 1917 Grand Touring car has all the features you would expect from museum quality reproductions: all four doors and bi-fold hood opening, detailed engine and instrument panel, chrome-look trim, and tufted upholstery, all topped off with a factory baked-enamel finish. |            2724 |     86.7 |  170 |         2996 |             30 |
+-------------+--------------------------+--------------+--------------+---------------------------+-----------------------------------------------------------------------------------------------------------------------------------------------------------------------------------------------------------------------------------------------------------------------------------------------------------+-----------------+----------+------+--------------+----------------+
1 row in set (0.03 sec)


/*9*/
select customerName, count(orderNumber) from Orders inner join Customers on Customers.customerNumber = Orders.customerNumber group by Orders.customerNumber order by count(OrderNumber) desc limit 5;

+------------------------------+--------------------+
| customerName                 | count(orderNumber) |
+------------------------------+--------------------+
| Euro+ Shopping Channel       |                 26 |
| Mini Gifts Distributors Ltd. |                 17 |
| Australian Collectors, Co.   |                  5 |
| Dragon Souveniers, Ltd.      |                  5 |
| Down Under Souveniers, Inc   |                  5 |
+------------------------------+--------------------+
5 rows in set (0.00 sec)


/*10*/
select customerName, concat(Employees.firstName," " ,Employees.lastName) as Employee_fullname from Customers inner join Employees on Customers.salesRepEmployeeNumber = Employees.employeeNumber ;

+------------------------------------+-------------------+
| customerName                       | Employee_fullname |
+------------------------------------+-------------------+
| Atelier graphique                  | Gerard Hernandez  |
| Signal Gift Stores                 | Leslie Thompson   |
| Australian Collectors, Co.         | Andy Fixter       |
| La Rochelle Gifts                  | Gerard Hernandez  |
| Baane Mini Imports                 | Barry Jones       |
| Mini Gifts Distributors Ltd.       | Leslie Jennings   |
| Blauer See Auto, Co.               | Barry Jones       |
| Mini Wheels Co.                    | Leslie Jennings   |
| Land of Toys Inc.                  | George Vanauf     |
| Euro+ Shopping Channel             | Gerard Hernandez  |
| Volvo Model Replicas, Co           | Barry Jones       |
| Danish Wholesale Imports           | Pamela Castillo   |
| Saveley & Henriot, Co.             | Loui Bondur       |
| Dragon Souveniers, Ltd.            | Mami Nishi        |
| Muscle Machine Inc                 | Foon Yue Tseng    |
| Diecast Classics Inc.              | Steve Patterson   |
| Technics Stores Inc.               | Leslie Jennings   |
| Handji Gifts& Co                   | Peter Marsh       |
| Herkku Gifts                       | Barry Jones       |
| American Souvenirs Inc             | Foon Yue Tseng    |
| Daedalus Designs Imports           | Gerard Hernandez  |
| La Corne D'abondance, Co.          | Loui Bondur       |
| Cambridge Collectables Co.         | Julie Firrelli    |
| Gift Depot Inc.                    | George Vanauf     |
| Osaka Souveniers Co.               | Mami Nishi        |
| Vitachrome Inc.                    | Foon Yue Tseng    |
| Toys of Finland, Co.               | Larry Bott        |
| AV Stores, Co.                     | Larry Bott        |
| Clover Collections, Co.            | Barry Jones       |
| Auto-Moto Classics Inc.            | Steve Patterson   |
| UK Collectables, Ltd.              | Larry Bott        |
| Canadian Gift Exchange Network     | George Vanauf     |
| Online Mini Collectables           | Julie Firrelli    |
| Toys4GrownUps.com                  | Leslie Thompson   |
| Mini Caravy                        | Gerard Hernandez  |
| King Kong Collectables, Co.        | Mami Nishi        |
| Enaco Distributors                 | Martin Gerard     |
| Boards & Toys Co.                  | Leslie Thompson   |
| Heintze Collectables               | Pamela Castillo   |
| Québec Home Shopping Network       | Foon Yue Tseng    |
| Collectable Mini Designs Co.       | Leslie Thompson   |
| giftsbymail.co.uk                  | Larry Bott        |
| Alpha Cognac                       | Gerard Hernandez  |
| Amica Models & Co.                 | Pamela Castillo   |
| Lyon Souveniers                    | Loui Bondur       |
| Auto Associés & Cie.               | Gerard Hernandez  |
| Toms Spezialitäten, Ltd            | Barry Jones       |
| Royal Canadian Collectables, Ltd.  | George Vanauf     |
| Anna's Decorations, Ltd            | Andy Fixter       |
| Rovelli Gifts                      | Pamela Castillo   |
| Souveniers And Things Co.          | Andy Fixter       |
| Marta's Replicas Co.               | Steve Patterson   |
| Vida Sport, Ltd                    | Martin Gerard     |
| Norway Gifts By Mail, Co.          | Barry Jones       |
| Oulu Toy Supplies, Inc.            | Larry Bott        |
| Petit Auto                         | Pamela Castillo   |
| Mini Classics                      | George Vanauf     |
| Mini Creations Ltd.                | Julie Firrelli    |
| Corporate Gift Ideas Co.           | Leslie Jennings   |
| Down Under Souveniers, Inc         | Peter Marsh       |
| Stylish Desk Decors, Co.           | Larry Bott        |
| Tekni Collectables Inc.            | George Vanauf     |
| Australian Gift Network, Co        | Andy Fixter       |
| Suominen Souveniers                | Larry Bott        |
| Classic Gift Ideas, Inc            | Julie Firrelli    |
| CAF Imports                        | Martin Gerard     |
| Men 'R' US Retailers, Ltd.         | Leslie Thompson   |
| Marseille Mini Autos               | Loui Bondur       |
| Reims Collectables                 | Loui Bondur       |
| GiftsForHim.com                    | Peter Marsh       |
| Gifts4AllAges.com                  | Steve Patterson   |
| Online Diecast Creations Co.       | Steve Patterson   |
| Precious Collectables              | Martin Gerard     |
| Collectables For Less Inc.         | Julie Firrelli    |
| Royale Belge                       | Pamela Castillo   |
| Salzburg Collectables              | Pamela Castillo   |
| Cruz & Sons Co.                    | Mami Nishi        |
| L'ordine Souveniers                | Pamela Castillo   |
| Tokyo Collectables, Ltd            | Mami Nishi        |
| Auto Canal+ Petit                  | Loui Bondur       |
| Extreme Desk Decorations, Ltd      | Peter Marsh       |
| Bavarian Collectables Imports, Co. | Barry Jones       |
| Classic Legends Inc.               | Foon Yue Tseng    |
| Gift Ideas Corp.                   | George Vanauf     |
| Scandinavian Gift Ideas            | Barry Jones       |
| The Sharp Gifts Warehouse          | Leslie Jennings   |
| Mini Auto Werke                    | Pamela Castillo   |
| Super Scale Inc.                   | Foon Yue Tseng    |
| Microscale Inc.                    | Foon Yue Tseng    |
| Corrida Auto Replicas, Ltd         | Martin Gerard     |
| FunGiftIdeas.com                   | Steve Patterson   |
| Australian Collectables, Ltd       | Andy Fixter       |
| Frau da Collezione                 | Pamela Castillo   |
| West Coast Collectables Co.        | Leslie Thompson   |
| Iberia Gift Imports, Corp.         | Martin Gerard     |
| Motor Mint Distributors Inc.       | George Vanauf     |
| Signal Collectibles Ltd.           | Leslie Jennings   |
| Double Decker Gift Stores, Ltd     | Larry Bott        |
| Diecast Collectables               | Julie Firrelli    |
| Kelly's Gift Shop                  | Peter Marsh       |
+------------------------------------+-------------------+
100 rows in set (0.00 sec)

mysql> 